Check your model with data observations • vmc
…
You may find that some of the points of model predictions and observed data are overlapped together, which may cause visual clutter. To fix this problem, you can change to another comparative layout using mc_layout_*.

model_beta %>%
  mcplot() +
  mc_distribution(ndraws = 50) +
  mc_model_point(group_sample = "hops") +
  mc_condition_on(x = vars(flipper_length_mm)) +
  mc_layout_juxtaposition()
#> nframes and fps adjusted to match transition
#> # A tibble: 50 × 7
#>    format width height colorspace matte filesize density
#>    <chr>  <int>  <int> <chr>      <lgl>    <int> <chr>  
#>  1 gif      800    400 sRGB       FALSE        0 28x28  
#>  2 gif      800    400 sRGB       FALSE        0 28x28  
#>  3 gif      800    400 sRGB       FALSE        0 28x28  
#>  4 gif      800    400 sRGB       FALSE        0 28x28  
#>  5 gif      800    400 sRGB       FALSE        0 28x28  
#>  6 gif      800    400 sRGB       FALSE        0 28x28  
#>  7 gif      800    400 sRGB       FALSE        0 28x28  
#>  8 gif      800    400 sRGB       FALSE        0 28x28  
#>  9 gif      800    400 sRGB       FALSE        0 28x28  
#> 10 gif      800    400 sRGB       FALSE        0 28x28  
#> # ℹ 40 more rows
…
